﻿50001010000, Ants, Saunamees, 1B
50001020000, Toomas, Linnupoeg, 1B
50001030000, Meelis, Kiilike, 1B
50001040000, Jaanus, Jaaniuss, 2A
50001050000, Kalle, Kallikas, 2A
50001060000, Joosep, Juurikas, 2A
60002010000, Malle, Mallikas, 1B
60003010000, Pille, Pallikas, 1B
60004010000, Ülle, Ülane, 1B
60005010000, Sille, Sulane, 2A
60006010000, Jaana, Jaaniuss, 2A
60007010000, Tiina, Tubli, 2A